  const int SPin1 = 7;
  
  boolean flag=LOW;
  
  
  
int cnt=0;
   void setup() 
   {
    pinMode(SPin1, INPUT); 
   
    pinMode(13, OUTPUT); 
   }
   void loop()  
  {
   if(digitalRead(SPin1)==HIGH)
    {
      flag=HIGH;
      while(digitalRead(SPin1)==HIGH){}
    }
    else if(flag==HIGH)
    {
         cnt ++;
         flag=LOW;
         if(cnt==10)
         {
              digitalWrite(13,  HIGH);
              delay(5000);
         }
         
    
    
    }
    
  }
