 #include <LiquidCrystal.h>

// initialize the library with the numbers of the interface pins
LiquidCrystal lcd(12, 11, 5, 4, 3, 2);//LiquidCrystal(rs, enable, d4, d5, d6, d7)
 const int SPin1 = 8;

   const int motor1Pin = 6;    
  const int motor2Pin = 7;  
  int y;
  int x;
  int j;
  int k;
  int sd1=800;
  int sd=300;
   int cd=0;
   int dev;
   int gain =315;
   int pwm =90;

  boolean flag=LOW;
  
  
  

   void setup() 
   {
       pinMode(SPin1, INPUT);  
       pinMode(motor1Pin, OUTPUT); 
       pinMode(motor2Pin, OUTPUT); 
       lcd.begin(16, 2);
   }
   void loop()  
  {
    
   if(digitalRead(SPin1)==HIGH)
    {
      flag=HIGH;
      while(digitalRead(SPin1)==HIGH){}
    }
    else if(flag==HIGH)
    {
         cd ++;
         flag=LOW;
    }
    dev=sd-cd;
    y=pwm+(gain-dev);
    x=y;
    lcd.setCursor(0, 0);
    lcd.print(cd);
    lcd.setCursor(0, 1);
lcd.print(x);
    digitalWrite(motor1Pin, LOW); 
  analogWrite(motor2Pin, x);
  if(cd>=150 && cd<=610)
  {
   // delay(1000);
    //lcd.setCursor(0, 0);
   // lcd.print(cd);
    digitalWrite(motor1Pin, LOW); 
   digitalWrite(motor2Pin, HIGH);
   //delay(20000);

  }
  if(cd>=610)
  {
    while(cd>=610)
    {
       if(digitalRead(SPin1)==HIGH)
    {
      flag=HIGH;
      while(digitalRead(SPin1)==HIGH){}
    }
    else if(flag==HIGH)
    {
         cd ++;
         flag=LOW;
    }
    k=pwm+(sd1-cd);
    j+k;
    digitalWrite(motor1Pin, LOW); 
  analogWrite(motor2Pin, j);
    }
  }
  }